%YAML 1.1
%TAG !u! tag:unity3d.com,2011:
--- !u!1 &3344390038241499962
GameObject:
  m_ObjectHideFlags: 0
  m_CorrespondingSourceObject: {fileID: 0}
  m_PrefabInstance: {fileID: 0}
  m_PrefabAsset: {fileID: 0}
  serializedVersion: 6
  m_Component:
  - component: {fileID: 8614637798216716765}
  m_Layer: 0
  m_Name: AddConnectionButton
  m_TagString: Connect
  m_Icon: {fileID: 0}
  m_NavMeshLayer: 0
  m_StaticEditorFlags: 0
  m_IsActive: 1
--- !u!4 &8614637798216716765
Transform:
  m_ObjectHideFlags: 0
  m_CorrespondingSourceObject: {fileID: 0}
  m_PrefabInstance: {fileID: 0}
  m_PrefabAsset: {fileID: 0}
  m_GameObject: {fileID: 3344390038241499962}
  m_LocalRotation: {x: 0, y: 0, z: 0, w: 1}
  m_LocalPosition: {x: 0, y: 0, z: 0}
  m_LocalScale: {x: 1, y: 1, z: 1}
  m_Children:
  - {fileID: 785749435495837077}
  m_Father: {fileID: 0}
  m_RootOrder: 0
  m_LocalEulerAnglesHint: {x: 0, y: 0, z: 0}
--- !u!1001 &7038159761854042103
PrefabInstance:
  m_ObjectHideFlags: 0
  serializedVersion: 2
  m_Modification:
    m_TransformParent: {fileID: 8614637798216716765}
    m_Modifications:
    - target: {fileID: 255309211645310389, guid: 706930f13c5673b43a246fefa1385f4a, type: 3}
      propertyPath: m_Name
      value: AddConnectonButton
      objectReference: {fileID: 0}
    - target: {fileID: 6986031851664522599, guid: 706930f13c5673b43a246fefa1385f4a, type: 3}
      propertyPath: m_Size.x
      value: 3
      objectReference: {fileID: 0}
    - target: {fileID: 6986031851664522599, guid: 706930f13c5673b43a246fefa1385f4a, type: 3}
      propertyPath: m_Size.y
      value: 0.4
      objectReference: {fileID: 0}
    - target: {fileID: 6986031851664522599, guid: 706930f13c5673b43a246fefa1385f4a, type: 3}
      propertyPath: m_Enabled
      value: 1
      objectReference: {fileID: 0}
    - target: {fileID: 6986031851664522599, guid: 706930f13c5673b43a246fefa1385f4a, type: 3}
      propertyPath: m_Center.x
      value: 0
      objectReference: {fileID: 0}
    - target: {fileID: 6986031851664522599, guid: 706930f13c5673b43a246fefa1385f4a, type: 3}
      propertyPath: m_Center.y
      value: 0
      objectReference: {fileID: 0}
    - target: {fileID: 6986031851664522599, guid: 706930f13c5673b43a246fefa1385f4a, type: 3}
      propertyPath: m_IsTrigger
      value: 0
      objectReference: {fileID: 0}
    - target: {fileID: 7731303910114288226, guid: 706930f13c5673b43a246fefa1385f4a, type: 3}
      propertyPath: m_Pivot.x
      value: 0.5
      objectReference: {fileID: 0}
    - target: {fileID: 7731303910114288226, guid: 706930f13c5673b43a246fefa1385f4a, type: 3}
      propertyPath: m_Pivot.y
      value: 0.5
      objectReference: {fileID: 0}
    - target: {fileID: 7731303910114288226, guid: 706930f13c5673b43a246fefa1385f4a, type: 3}
      propertyPath: m_RootOrder
      value: 0
      objectReference: {fileID: 0}
    - target: {fileID: 7731303910114288226, guid: 706930f13c5673b43a246fefa1385f4a, type: 3}
      propertyPath: m_AnchorMax.x
      value: 0.5
      objectReference: {fileID: 0}
    - target: {fileID: 7731303910114288226, guid: 706930f13c5673b43a246fefa1385f4a, type: 3}
      propertyPath: m_AnchorMax.y
      value: 0.5
      objectReference: {fileID: 0}
    - target: {fileID: 7731303910114288226, guid: 706930f13c5673b43a246fefa1385f4a, type: 3}
      propertyPath: m_AnchorMin.x
      value: 0.5
      objectReference: {fileID: 0}
    - target: {fileID: 7731303910114288226, guid: 706930f13c5673b43a246fefa1385f4a, type: 3}
      propertyPath: m_AnchorMin.y
      value: 0.5
      objectReference: {fileID: 0}
    - target: {fileID: 7731303910114288226, guid: 706930f13c5673b43a246fefa1385f4a, type: 3}
      propertyPath: m_SizeDelta.x
      value: 3
      objectReference: {fileID: 0}
    - target: {fileID: 7731303910114288226, guid: 706930f13c5673b43a246fefa1385f4a, type: 3}
      propertyPath: m_SizeDelta.y
      value: 0.4
      objectReference: {fileID: 0}
    - target: {fileID: 7731303910114288226, guid: 706930f13c5673b43a246fefa1385f4a, type: 3}
      propertyPath: m_LocalPosition.x
      value: 0
      objectReference: {fileID: 0}
    - target: {fileID: 7731303910114288226, guid: 706930f13c5673b43a246fefa1385f4a, type: 3}
      propertyPath: m_LocalPosition.y
      value: 0
      objectReference: {fileID: 0}
    - target: {fileID: 7731303910114288226, guid: 706930f13c5673b43a246fefa1385f4a, type: 3}
      propertyPath: m_LocalPosition.z
      value: 0
      objectReference: {fileID: 0}
    - target: {fileID: 7731303910114288226, guid: 706930f13c5673b43a246fefa1385f4a, type: 3}
      propertyPath: m_LocalRotation.w
      value: 1
      objectReference: {fileID: 0}
    - target: {fileID: 7731303910114288226, guid: 706930f13c5673b43a246fefa1385f4a, type: 3}
      propertyPath: m_LocalRotation.x
      value: -0
      objectReference: {fileID: 0}
    - target: {fileID: 7731303910114288226, guid: 706930f13c5673b43a246fefa1385f4a, type: 3}
      propertyPath: m_LocalRotation.y
      value: -0
      objectReference: {fileID: 0}
    - target: {fileID: 7731303910114288226, guid: 706930f13c5673b43a246fefa1385f4a, type: 3}
      propertyPath: m_LocalRotation.z
      value: -0
      objectReference: {fileID: 0}
    - target: {fileID: 7731303910114288226, guid: 706930f13c5673b43a246fefa1385f4a, type: 3}
      propertyPath: m_AnchoredPosition.x
      value: 0
      objectReference: {fileID: 0}
    - target: {fileID: 7731303910114288226, guid: 706930f13c5673b43a246fefa1385f4a, type: 3}
      propertyPath: m_AnchoredPosition.y
      value: 0.796
      objectReference: {fileID: 0}
    - target: {fileID: 7731303910114288226, guid: 706930f13c5673b43a246fefa1385f4a, type: 3}
      propertyPath: m_LocalEulerAnglesHint.x
      value: 0
      objectReference: {fileID: 0}
    - target: {fileID: 7731303910114288226, guid: 706930f13c5673b43a246fefa1385f4a, type: 3}
      propertyPath: m_LocalEulerAnglesHint.y
      value: 0
      objectReference: {fileID: 0}
    - target: {fileID: 7731303910114288226, guid: 706930f13c5673b43a246fefa1385f4a, type: 3}
      propertyPath: m_LocalEulerAnglesHint.z
      value: 0
      objectReference: {fileID: 0}
    m_RemovedComponents: []
  m_SourcePrefab: {fileID: 100100000, guid: 706930f13c5673b43a246fefa1385f4a, type: 3}
--- !u!224 &785749435495837077 stripped
RectTransform:
  m_CorrespondingSourceObject: {fileID: 7731303910114288226, guid: 706930f13c5673b43a246fefa1385f4a, type: 3}
  m_PrefabInstance: {fileID: 7038159761854042103}
  m_PrefabAsset: {fileID: 0}
