{
    "m_SelectedDeviceId": "e3b983b7",
    "m_SelectedPackage": {
        "deviceId": "e3b983b7",
        "name": "com.DefaultCompany.LocalGPS",
        "processId": 21536,
        "exited": false
    },
    "m_SelectedPriority": 0,
    "m_KnownPackagesForSerialization": [
        {
            "deviceId": "712KPNY1138911",
            "name": "com.DefaultCompany.LocalGPS",
            "processId": 18047,
            "exited": false
        },
        {
            "deviceId": "712KPNY1138911",
            "name": "com.DefaultCompany.LocalGPS",
            "processId": 19008,
            "exited": false
        },
        {
            "deviceId": "712KPNY1138911",
            "name": "com.DefaultCompany.LocalGPS",
            "processId": 19593,
            "exited": false
        },
        {
            "deviceId": "712KPNY1138911",
            "name": "com.DefaultCompany.LocalGPS",
            "processId": 5438,
            "exited": false
        },
        {
            "deviceId": "712KPNY1138911",
            "name": "com.DefaultCompany.LocalGPS",
            "processId": 5958,
            "exited": false
        },
        {
            "deviceId": "712KPNY1138911",
            "name": "com.DefaultCompany.LocalGPS",
            "processId": 11241,
            "exited": false
        },
        {
            "deviceId": "e3b983b7",
            "name": "com.DefaultCompany.LocalGPS",
            "processId": 13296,
            "exited": true
        },
        {
            "deviceId": "e3b983b7",
            "name": "com.DefaultCompany.LocalGPS",
            "processId": 6495,
            "exited": true
        },
        {
            "deviceId": "e3b983b7",
            "name": "com.microsoft.launcher",
            "processId": 20771,
            "exited": false
        },
        {
            "deviceId": "e3b983b7",
            "name": "com.DefaultCompany.LocalGPS",
            "processId": 12588,
            "exited": true
        },
        {
            "deviceId": "e3b983b7",
            "name": "com.DefaultCompany.LocalGPS",
            "processId": 14624,
            "exited": true
        },
        {
            "deviceId": "e3b983b7",
            "name": "com.DefaultCompany.LocalGPS",
            "processId": 19125,
            "exited": true
        },
        {
            "deviceId": "e3b983b7",
            "name": "com.DefaultCompany.LocalGPS",
            "processId": 21536,
            "exited": false
        }
    ],
    "m_Tags": {
        "m_Entries": [
            {
                "m_Name": "Filter by all listed tags",
                "m_Selected": false
            },
            {
                "m_Name": "No Filter",
                "m_Selected": false
            },
            {
                "m_Name": "",
                "m_Selected": false
            },
            {
                "m_Name": "Tag Control...",
                "m_Selected": false
            },
            {
                "m_Name": "",
                "m_Selected": false
            },
            {
                "m_Name": "Unity",
                "m_Selected": true
            },
            {
                "m_Name": "CRASH",
                "m_Selected": true
            },
            {
                "m_Name": "Parcel",
                "m_Selected": false
            }
        ]
    },
    "m_MemoryViewerState": {
        "MemoryWindowHeight": 300.0,
        "MemoryWindowWidth": 170.0,
        "MemoryTypeEnabled": [
            true,
            true,
            true,
            true,
            true,
            true,
            true,
            true,
            true,
            true
        ],
        "MemoryGroup": 2,
        "Behavior": 0
    },
    "m_Filter": "",
    "m_FilterIsRegularExpression": false,
    "m_SymbolPaths": []
}